{
  "description": "Fetch all transfers on your account",
  "endpoint": "GET /transfers",
  "headers": {
    "Authorization": "Bearer {Secret Key}",
    "Content-Type": "application/json"
  },
  "request_spec": {
    "type": "params_query",
    "spec": {
      "page": "This allows you fetch from a specific page e.g. set page to 1 fetches the first page.",
      "status": "This allows you fetch only transfers with a specific status e.g. fetch all successful transactions. Possible values are failed, successful"
    }
  },
  "sample_request": {},
  "sample_response": {
    "status": "success",
    "message": "Transfers fetched",
    "meta": {
      "page_info": {
        "total": 150,
        "current_page": 1,
        "total_pages": 15
      }
    },
    "data": [
      {
        "id": 26255,
        "account_number": "0690000034",
        "bank_code": "044",
        "full_name": "Ade Bond",
        "created_at": "2020-01-20T16:36:33.000Z",
        "currency": "NGN",
        "debit_currency": null,
        "amount": 5000,
        "fee": 53750,
        "status": "PENDING",
        "reference": "akhlm-blktrnsfr-xy03",
        "meta": null,
        "narration": "akhlm blktrnsfr",
        "approver": null,
        "complete_message": "Transaction is currently being processed",
        "requires_approval": 0,
        "is_approved": 1,
        "bank_name": "ACCESS BANK NIGERIA"
      },
      {
        "id": 26254,
        "account_number": "0690000034",
        "bank_code": "044",
        "full_name": "Ade Bond",
        "created_at": "2020-01-20T16:34:41.000Z",
        "currency": "NGN",
        "debit_currency": null,
        "amount": 5000,
        "fee": 53750,
        "status": "PENDING",
        "reference": "akhlm-blktrnsfr-xy02",
        "meta": null,
        "narration": "akhlm blktrnsfr",
        "approver": null,
        "complete_message": "Transaction is currently being processed",
        "requires_approval": 0,
        "is_approved": 1,
        "bank_name": "ACCESS BANK NIGERIA"
      },
      {
        "id": 26252,
        "account_number": "0690000040",
        "bank_code": "042",
        "full_name": "N/A",
        "created_at": "2020-01-20T16:10:30.000Z",
        "currency": "NGN",
        "debit_currency": "NGN",
        "amount": 5500,
        "fee": 45,
        "status": "FAILED",
        "reference": "akhlm-pstmnpyt-rfxx008_PMCKDU_1",
        "meta": null,
        "narration": "Akhlm Pstmn Trnsfr xx008",
        "approver": null,
        "complete_message": "Account resolve failed",
        "requires_approval": 0,
        "is_approved": 1,
        "bank_name": "N/A"
      },
      {
        "id": 26251,
        "account_number": "0690000040",
        "bank_code": "044",
        "full_name": "Alexis Sanchez",
        "created_at": "2020-01-20T16:09:34.000Z",
        "currency": "NGN",
        "debit_currency": "NGN",
        "amount": 5500,
        "fee": 45,
        "status": "PENDING",
        "reference": "akhlm-pstmnpyt-rfxx007_PMCKDU_1",
        "meta": null,
        "narration": "Akhlm Pstmn Trnsfr xx007",
        "approver": null,
        "complete_message": "Transaction is currently being processed",
        "requires_approval": 0,
        "is_approved": 1,
        "bank_name": "ACCESS BANK NIGERIA"
      },
      {
        "id": 26250,
        "account_number": "0690000040",
        "bank_code": "041",
        "full_name": "N/A",
        "created_at": "2020-01-20T16:08:43.000Z",
        "currency": "NGN",
        "debit_currency": "NGN",
        "amount": 5500,
        "fee": 45,
        "status": "FAILED",
        "reference": "akhlm-pstmnpyt-rfxx006_PMCKDU_1",
        "meta": null,
        "narration": "Akhlm Pstmn Trnsfr xx006",
        "approver": null,
        "complete_message": "Account resolve failed",
        "requires_approval": 0,
        "is_approved": 1,
        "bank_name": "N/A"
      },
      {
        "id": 26249,
        "account_number": "0690000039",
        "bank_code": "041",
        "full_name": "N/A",
        "created_at": "2020-01-20T16:08:09.000Z",
        "currency": "NGN",
        "debit_currency": "NGN",
        "amount": 5500,
        "fee": 45,
        "status": "FAILED",
        "reference": "akhlm-pstmnpyt-rfxx005_PMCKDU_1",
        "meta": null,
        "narration": "Akhlm Pstmn Trnsfr xx005",
        "approver": null,
        "complete_message": "Account resolve failed",
        "requires_approval": 0,
        "is_approved": 1,
        "bank_name": "N/A"
      },
      {
        "id": 26248,
        "account_number": "0690000044",
        "bank_code": "041",
        "full_name": "N/A",
        "created_at": "2020-01-20T16:07:35.000Z",
        "currency": "NGN",
        "debit_currency": "NGN",
        "amount": 5500,
        "fee": 45,
        "status": "FAILED",
        "reference": "akhlm-pstmnpyt-rfxx004_PMCKDU_1",
        "meta": null,
        "narration": "Akhlm Pstmn Trnsfr xx004",
        "approver": null,
        "complete_message": "Account resolve failed",
        "requires_approval": 0,
        "is_approved": 1,
        "bank_name": "N/A"
      },
      {
        "id": 26169,
        "account_number": "0690000034",
        "bank_code": "044",
        "full_name": "Ade Bond",
        "created_at": "2020-01-19T23:04:14.000Z",
        "currency": "NGN",
        "debit_currency": null,
        "amount": 500,
        "fee": 5375,
        "status": "PENDING",
        "reference": "akhlm-blktrnsfr-xy01",
        "meta": null,
        "narration": "akhlm blktrnsfr",
        "approver": null,
        "complete_message": "Transaction is currently being processed",
        "requires_approval": 0,
        "is_approved": 1,
        "bank_name": "ACCESS BANK NIGERIA"
      },
      {
        "id": 26168,
        "account_number": "0690000041",
        "bank_code": "044",
        "full_name": "Alexis Rogers",
        "created_at": "2020-01-19T22:49:08.000Z",
        "currency": "NGN",
        "debit_currency": "NGN",
        "amount": 5500,
        "fee": 45,
        "status": "PENDING",
        "reference": "akhlm-pstmnpyt-rfxx002_PMCK",
        "meta": null,
        "narration": "Akhlm Pstmn Trnsfr xx002",
        "approver": null,
        "complete_message": "Transaction is currently being processed",
        "requires_approval": 0,
        "is_approved": 1,
        "bank_name": "ACCESS BANK NIGERIA"
      },
      {
        "id": 26167,
        "account_number": "0690000044",
        "bank_code": "044",
        "full_name": "Mercedes Daniel",
        "created_at": "2020-01-19T22:44:03.000Z",
        "currency": "NGN",
        "debit_currency": "NGN",
        "amount": 5500,
        "fee": 45,
        "status": "PENDING",
        "reference": "akhlm-pstmnpyt-rfxx001_PMCKDU_1",
        "meta": null,
        "narration": "Akhlm Pstmn Trnsfr xx001",
        "approver": null,
        "complete_message": "Transaction is currently being processed",
        "requires_approval": 0,
        "is_approved": 1,
        "bank_name": "ACCESS BANK NIGERIA"
      }
    ]
  }
}
